sample pom
==
<?xml version="1.0" encoding="UTF-8"?>
<project xmlns="http://maven.apache.org/POM/4.0.0"
        xmlns:xsi="http://www.w3.org/2001/XMLSchema-instance"
        xsi:schemaLocation="http://maven.apache.org/POM/4.0.0 http://maven.apache.org/xsd/maven-4.0.0.xsd">
   <modelVersion>4.0.0</modelVersion>

   <groupId>myaws</groupId>
   <artifactId>myaws1</artifactId>
   <version>1.0-SNAPSHOT</version>
   <dependencies>
       <dependency>
           <groupId>com.amazonaws</groupId>
           <artifactId>aws-lambda-java-core</artifactId>
           <version>1.1.0</version>
           <scope>compile</scope>
       </dependency>
       <dependency>
           <groupId>com.amazonaws</groupId>
           <artifactId>aws-lambda-java-events</artifactId>
           <version>1.3.0</version>
           <scope>compile</scope>
       </dependency>
   </dependencies>
   <build>
       <plugins>
           <plugin>
               <groupId>org.apache.maven.plugins</groupId>
               <artifactId>maven-shade-plugin</artifactId>
               <version>2.3</version>
               <configuration>
                   <createDependencyReducedPom>false</createDependencyReducedPom>
               </configuration>
               <executions>
                   <execution>
                       <phase>package</phase>
                       <goals>
                           <goal>shade</goal>
                       </goals>
                   </execution>
               </executions>
           </plugin>
           <plugin>
               <groupId>org.apache.maven.plugins</groupId>
               <artifactId>maven-compiler-plugin</artifactId>
               <configuration>
                   <source>1.8</source>
                   <target>1.8</target>
               </configuration>
           </plugin>
       </plugins>
   </build>
</project>


sample lambda http handler
==
package com.myaws;
import com.amazonaws.services.lambda.runtime.Context;
import com.amazonaws.services.lambda.runtime.RequestHandler;
import com.amazonaws.services.lambda.runtime.events.S3Event;

public class LambdaFunctionHandler implements RequestHandler<S3Event, Object> {
   @Override
   public Object handleRequest(S3Event input, Context context) {
       context.getLogger().log("Input: " + input);
       String output = "Hello, " + input + "!";
       return output;
   }

}


